<svg id="surface1" xmlns="http://www.w3.org/2000/svg" width="11.922" height="14" viewBox="0 0 11.922 14">
  <path id="Path_1701" data-name="Path 1701" d="M11.908,3.8V3.787c-.006-.134-.01-.277-.013-.435A1.484,1.484,0,0,0,10.5,1.9,5.758,5.758,0,0,1,6.579.246L6.57.238a.9.9,0,0,0-1.218,0L5.343.246A5.758,5.758,0,0,1,1.425,1.9a1.484,1.484,0,0,0-1.4,1.454c0,.157-.007.3-.013.435v.025A15.173,15.173,0,0,0,.627,9.35a7.05,7.05,0,0,0,1.691,2.635,8.848,8.848,0,0,0,3.31,1.958,1.024,1.024,0,0,0,.136.037,1,1,0,0,0,.394,0,1.025,1.025,0,0,0,.136-.037A8.853,8.853,0,0,0,9.6,11.983a7.06,7.06,0,0,0,1.691-2.635A15.2,15.2,0,0,0,11.908,3.8ZM10.521,9.064a6.793,6.793,0,0,1-4.5,4.1L6,13.174a.185.185,0,0,1-.072,0L5.9,13.167a6.785,6.785,0,0,1-4.5-4.1A14.315,14.315,0,0,1,.836,3.828V3.819c.006-.142.011-.291.013-.455a.659.659,0,0,1,.622-.645A7.208,7.208,0,0,0,3.917,2.18,6.4,6.4,0,0,0,5.91.841a.076.076,0,0,1,.1,0A6.4,6.4,0,0,0,8.006,2.18a7.208,7.208,0,0,0,2.447.538.659.659,0,0,1,.621.646c0,.164.007.313.013.455A14.323,14.323,0,0,1,10.521,9.064Zm0,0" transform="translate(0 0.001)" fill="#640018"/>
  <path id="Path_1702" data-name="Path 1702" d="M93.725,128.41a3.741,3.741,0,1,0,3.327,3.718A3.543,3.543,0,0,0,93.725,128.41Zm0,6.561a2.86,2.86,0,1,1,2.543-2.843A2.709,2.709,0,0,1,93.725,134.971Zm0,0" transform="translate(-87.764 -125.128)" fill="#640018"/>
  <path id="Path_1703" data-name="Path 1703" d="M156.616,212.12l-1.727,1.727-.469-.469a.438.438,0,0,0-.619.619l.778.778a.438.438,0,0,0,.619,0l2.037-2.037a.438.438,0,0,0-.619-.619Zm0,0" transform="translate(-149.584 -206.287)" fill="#640018"/>
</svg>
